<?xml version="1.0" encoding="UTF-8"?>
<svg width="184px" height="39px" viewBox="0 0 184 39" version="1.1" xmlns="http://www.w3.org/2000/svg" xmlns:xlink="http://www.w3.org/1999/xlink">
    <!-- Generator: Sketch 52.2 (67145) - http://www.bohemiancoding.com/sketch -->
    <title>mdpi/Buy1.Promo_Logo</title>
    <desc>Created with Sketch.</desc>
    <g id="Symbols" stroke="none" stroke-width="1" fill="none" fill-rule="evenodd">
        <g id="Dashboard_Menu-bar" transform="translate(-14.000000, -75.000000)">
            <g id="Buy1.Promo_Logo" transform="translate(14.000000, 68.000000)">
                <polygon id="Clip-1" points="40.7477917 7.08769013 184.900224 7.08769013 184.900224 44.3346569 40.7477917 44.3346569"></polygon>
                <text id="Buy1" font-family="Bicyclette-Bold, Bicyclette" font-size="26.7585" font-weight="bold" fill="#76AE42">
                    <tspan x="40.7477917" y="28.3466541">Buy1</tspan>
                </text>
                <text id=".Pr" font-family="Bicyclette-Bold, Bicyclette" font-size="26.7585" font-weight="bold" fill="#383939">
                    <tspan x="98.4465506" y="28.3466541">.Pr</tspan>
                </text>
                <text id="omo" font-family="Bicyclette-Bold, Bicyclette" font-size="26.7585" font-weight="bold" fill="#383939">
                    <tspan x="133.511335" y="28.3466541">omo</tspan>
                </text>
                <text id="No-minimum-order-st" font-family="Bicyclette-Italic, Bicyclette" font-size="8.6519" font-style="italic" font-weight="normal" fill="#76AE42">
                    <tspan x="89.8031111" y="39.5013335">No minimum order st</tspan>
                </text>
                <polygon id="Clip-3" points="0 7.02777778 185 7.02777778 185 45.8675 0 45.8675"></polygon>
                <text id="ores" font-family="Bicyclette-Regular, Bicyclette" font-size="8.6519" font-weight="normal" fill="#76AE42">
                    <tspan x="167.065072" y="39.5013335">ores</tspan>
                </text>
                <path d="M2.91611389,7.02746944 L17.0007806,10.6791639 L17.0007806,45.8671917 L19.9196694,45.8671917 C25.2548639,45.8671917 28.995975,44.6646917 31.1440306,42.2566083 C32.9971139,40.1835806 33.9231417,37.7939972 33.9231417,35.0909417 C33.9231417,32.6458583 33.1985583,30.6057194 31.7555583,28.9756639 C30.3485306,27.3106639 28.440975,26.2181361 26.0318639,25.6991083 C26.6999194,25.4031083 27.1624194,25.196525 27.423475,25.085525 C27.6804194,24.9385528 28.144975,24.6065806 28.810975,24.0885806 C30.7750583,22.6054972 31.7555583,20.3454139 31.7555583,17.3073028 C31.7555583,14.7861639 30.8870861,12.5291639 29.1450028,10.5301361 C28.1809472,9.45610833 26.7358917,8.60305278 24.8098361,7.973025 C22.9218083,7.34299722 20.661725,7.02746944 18.0316417,7.02746944 L2.91611389,7.02746944 Z" id="Fill-4" fill="#76AE42"></path>
                <path d="M1.33128056,12.3043889 C1.35491944,13.6713333 1.44228056,15.7279167 1.91608611,18.2531667 C2.26758611,20.1216667 2.79791944,21.9983889 3.70236389,23.4814722 C4.603725,24.9625 6.01075278,26.0807222 7.82478056,26.02625 C9.51855833,26.0211111 10.8834472,25.2800833 11.8433917,24.2235278 C12.8053917,23.1618333 13.4158917,21.8154444 13.8239194,20.5009167 C14.5228083,18.2459722 14.6132528,16.3384167 14.6317528,15.7536111 L13.0798083,15.3507222 C13.0777528,15.4761111 13.030475,17.7372222 12.3151417,20.0271111 C11.9502806,21.207 11.4076139,22.3468056 10.6748083,23.1546389 C9.94303056,23.9604167 9.06941944,24.4558056 7.804225,24.4558056 L7.78469722,24.4558056 C6.60069722,24.4979444 5.78978056,23.8658611 5.05594722,22.6623333 C4.32416944,21.4608611 3.79486389,19.7321389 3.465975,17.9664167 C3.08466944,15.9190833 2.96853056,14.0978611 2.92125278,12.7155 L1.33128056,12.3043889 Z" id="Fill-5" fill="#373132"></path>
                <polygon id="Fill-6" fill="#373132" points="-0.000102777776 32.0891111 8.47700833 36.9813333 5.87261944 38.4849722 9.04536944 43.9815278 5.77600833 45.8675 2.60325833 40.3740278 -0.000102777776 41.8756111"></polygon>
            </g>
        </g>
    </g>
</svg>